|    +21.259    -15.769    -25.317    -29.586    -18.423     +6.277    -28.494    -14.659    +21.508     +8.475    +19.102    -21.985     -1.011    -27.233    +14.081    -31.746     -8.727    -33.349     -2.874    +11.175    -15.558    -17.932     +9.283    +11.866    +15.117    +16.777     +2.290    +18.090    -14.570    +14.789    +26.807     +3.902    +28.899    -30.892     -4.130     +3.070    -37.158     -2.154    +31.277    -23.059    +21.659     -5.732    -29.148     -9.963    -29.940    +28.613     +6.011    +25.386     +9.439    +21.311    -26.681     -7.943    +35.044    -26.488    -25.501     +2.982    -44.536    +37.893    -13.879     +2.495    -58.108    -11.918    -59.826    +62.125     +2.631    +62.420     +9.685    -57.445    +23.638    -40.379 |
|    +26.350    -18.852    -31.239    -31.327    -12.017     +8.002    -26.146    -18.390    +30.828    +15.801    +20.830    -21.580     -3.147    -29.592    +10.114    -34.093    -13.135    -24.501     -2.176     +9.178    -23.024    -14.803     +9.508    +10.645    +11.612    +17.007     -3.002    +16.100    -10.359    +11.648    +20.813     -0.728    +25.336    -32.977     -7.192     +2.252    -37.243     -7.082    +30.351    -20.726    +22.162     -7.730    -33.641    -10.866    -29.756    +29.151     +9.107    +26.093     +6.181    +19.143    -32.420     -2.932    +32.874    -32.415    -27.614     +1.210    -35.343    +41.043    -14.992     -6.300    -58.132    -16.925    -54.002    +63.203     +1.597    +56.368    +14.765    -59.362    +14.847    -42.177 |
|    +28.526    -23.948    -33.870    -31.679     -6.264    +10.114    -33.605    -22.144    +27.631    +20.395    +20.269    -21.933     -9.513    -26.273     +4.286    -27.404     -7.285    -23.087     +1.332     +9.415    -26.434    -21.424     +6.361    +14.040    +15.650    +18.562     -2.100    +14.956     -4.204     +7.465    +15.478     -7.619    +26.252    -32.707    -10.138     -1.661    -30.657     -9.125    +32.417    -23.045    +22.130     -7.034    -31.630    -13.301    -27.325    +29.372    +10.626    +30.174     +8.897     +9.847    -23.933     -7.757    +30.864    -29.129    -29.035     +0.204    -33.223    +42.003    -19.766     -3.192    -49.567    -17.073    -62.100    +67.143     -2.152    +61.541    +17.983    -52.896    +16.912    -39.571 |
|    +32.582    -29.900    -34.755    -32.920    -14.549     +6.382    -34.464    -18.232    +30.262    +22.374    +28.940    -25.109    -18.226    -25.757     -2.476    -23.332     -3.301    -26.518     -9.200     +3.629    -21.365    -22.402     +7.261    +14.730    +11.708    +18.144     -6.832    +18.229     +0.881     +7.240    +10.209     -7.488    +26.431    -28.710     -9.178     -3.162    -27.765    -10.462    +33.070    -26.063    +24.864     -7.911    -31.883    -10.923    -29.402    +27.690     +9.783    +38.173     +5.073    +12.205    -26.336     -4.491    +35.421    -22.290    -20.502     -4.538    -40.954    +39.628    -17.715     -2.994    -45.952    -21.055    -55.316    +61.487     +0.202    +61.365    +20.646    -51.972    +15.776    -39.893 |
|    +36.754    -26.845    -31.477    -39.230    -17.032     +2.199    -39.570    -17.957    +32.287    +19.518    +33.387    -25.646    -25.693    -24.746    -11.791    -15.762     -1.968    -22.153     -5.367    +11.752    -23.724    -24.733    +15.215    +17.839    +11.808    +19.262     -8.112    +15.384     +1.697     +6.416     +9.274     -0.650    +22.483    -24.842     -5.227     -5.086    -30.634    -15.098    +28.052    -24.058    +23.349     -9.828    -30.702     -9.723    -30.367    +30.035    +12.615    +30.088     +2.596     +9.749    -28.459    -13.143    +28.597    -21.383    -19.393     -3.066    -42.621    +35.490    -24.747     +0.623    -52.105    -18.267    -50.497    +64.071     -1.174    +56.486    +12.644    -55.128    +14.234    -40.296 |
|    +36.347    -23.537    -38.589    -44.589    -17.791     +3.532    -45.328    -18.185    +31.161    +25.163    +31.113    -31.697    -29.677    -24.366    -17.080    -17.371     -1.404    -19.642     -5.894     +5.597    -25.034    -19.770    +10.977    +24.118    +13.712    +17.241    -11.172    +13.335     +2.382     +4.262    +18.599     +2.125    +16.854    -20.691     +0.210     -4.661    -27.598    -11.497    +29.766    -27.568    +23.217     -5.437    -32.068     -9.562    -28.839    +38.095     +9.581    +30.873     +6.629    +15.871    -32.967    -13.446    +23.885    -29.208    -18.005     -3.956    -37.919    +38.766    -20.957     +2.933    -44.330     -8.497    -47.438    +57.022     -2.130    +55.402     +9.667    -54.954    +20.977    -37.158 |
|    +27.998    -25.927    -46.379    -45.903    -18.760     +1.671    -45.703    -18.401    +40.113    +29.525    +31.757    -29.892    -27.696    -24.460    -17.057    -20.899     +6.331    -19.004     -2.430     +3.560    -23.708    -23.914     +9.758    +22.302    +18.675    +14.120    -14.529    +14.977     -1.999     -0.330    +20.552     +6.203    +10.425    -18.999     -2.117     -8.777    -25.320    -11.639    +27.364    -24.211    +17.705     -4.672    -32.495     -7.989    -33.617    +30.340     +6.689    +30.624     +3.802     +9.271    -34.677    -11.933    +24.494    -22.613    -22.931     +4.381    -37.822    +42.390    -25.000     +8.673    -47.910     -9.114    -48.568    +42.834     -3.888    +54.591     +8.681    -53.247    +22.069    -43.447 |
|    +31.415    -24.112    -48.202    -50.325    -19.989     +5.855    -48.827    -21.390    +45.714    +31.459    +28.784    -22.591    -29.312    -33.720    -11.682    -23.270     +7.168    -15.461     +2.573     +6.885    -20.633    -25.477    +13.985    +19.580    +13.695    +17.381    -14.692    +20.485     -1.960     -5.390    +19.421     +7.447    +12.411    -13.897     -4.201     -6.534    -22.413    -12.591    +25.799    -23.014    +15.766     -2.007    -33.216    -13.201    -37.707    +31.271    +10.576    +36.633     +8.442     +7.828    -28.815     -8.585    +33.417    -22.355    -25.349     -2.405    -36.142    +33.222    -21.868    +11.602    -45.527     -0.665    -42.439    +43.283     +0.156    +52.213     -0.534    -47.095    +23.372    -44.823 |
|    +38.735    -23.248    -42.111    -50.480    -21.019     +6.969    -53.184    -19.298    +48.313    +39.754    +27.252    -23.267    -26.106    -33.328    -10.065    -30.946     +9.288    -20.847     +5.440     +5.381    -17.883    -20.728    +11.470    +22.276     +9.521    +23.000     -5.575    +23.615     +6.393     -6.760    +17.998     +8.163    +15.228    -10.321     -5.987     -2.870    -16.343    -11.553    +20.833    -25.017    +15.158     +4.268    -33.040    -11.016    -29.410    +31.636     +9.351    +36.685     +1.715     +8.801    -26.589    -13.002    +33.270    -18.740    -31.392     +6.529    -38.578    +33.529    -28.836     +8.634    -45.647     -0.145    -38.663    +41.086     +0.339    +42.838     +2.454    -51.493    +26.746    -42.609 |
|    +40.545    -32.491    -42.586    -46.319    -27.402     +5.978    -57.597    -20.646    +50.702    +38.313    +27.383    -25.590    -24.519    -30.300    -10.632    -33.685     +5.988    -24.507    +11.628    +12.701    -15.235    -22.065     +7.539    +17.858    +14.659    +24.404     -4.693    +27.993    +10.184     -5.281    +16.389    +12.502    +13.041    -12.382    -13.684     -0.810    -14.667    -12.293    +14.821    -23.642    +11.638     -4.036    -34.402     -6.543    -34.723    +35.713    +16.073    +31.004     +1.615    +16.706    -30.894    -12.008    +33.749    -24.626    -28.021    +10.820    -34.960    +27.475    -27.068    +13.440    -35.365     -2.647    -41.823    +38.418     +0.332    +40.177     +4.598    -45.972    +26.320    -37.721 |
|    +40.738    -34.251    -44.777    -45.703    -22.830     +6.040    -59.001    -18.357    +51.825    +33.690    +27.269    -27.229    -32.880    -36.087    -11.559    -35.123     -0.606    -29.928    +10.798    +17.945    -14.903    -16.234     +3.022    +11.061    +15.211    +25.424    -14.891    +27.185     +5.091     -8.734    +19.668    +11.564    +14.054     -9.669    -13.175     +5.563     -9.808     -8.701    +13.425    -26.625     +8.067     -1.761    -27.369     -3.266    -29.858    +35.875     +8.312    +29.878     +4.589    +13.825    -33.453    -17.828    +31.842    -24.439    -35.339    +15.891    -40.201    +23.654    -29.358    +12.174    -31.865     -4.505    -37.943    +39.864     +5.964    +44.093     +6.300    -38.976    +16.397    -38.520 |
|    +43.594    -30.306    -49.055    -54.098    -17.623     +9.185    -55.662    -16.883    +49.234    +32.250    +34.657    -31.735    -28.610    -31.993    -11.660    -34.233     +5.647    -37.241    +10.146    +25.647    -16.385    -15.462     -2.022    +16.067    +18.898    +26.629    -13.253    +20.725     +2.595    -13.026    +25.074    +15.245    +14.724     -9.616    -15.476     +6.669    -12.314     -5.743    +10.635    -21.531    +12.161     +2.656    -28.462     -4.217    -34.177    +30.372    +10.594    +33.922    +12.919    +15.004    -33.354    -12.599    +35.538    -19.944    -33.164    +17.288    -37.557    +16.530    -33.201     +9.895    -31.958     -4.438    -33.775    +40.528     +2.235    +38.993    +12.137    -37.509    +10.178    -29.739 |
|    +39.638    -32.691    -51.103    -57.645    -18.572     +0.788    -50.141    -21.663    +44.043    +34.244    +34.861    -34.930    -30.393    -40.927    -13.436    -37.688     +2.054    -35.780     +5.811    +27.812    -17.441    -17.330     -1.067    +18.410    +12.717    +19.363    -11.531    +25.803     +6.499     -4.978    +26.376    +18.827    +10.218     -7.320    -16.792     +6.629    -13.651     -3.913    +11.797    -11.396     +7.919     +4.031    -23.668     -9.811    -30.767    +23.172    +13.665    +34.699     +8.780    +11.618    -36.170    -18.769    +39.359    -19.342    -38.624    +17.197    -37.155    +16.338    -30.560    +13.873    -27.134     +0.648    -35.512    +42.954     +1.334    +37.763    +18.026    -38.755     +8.932    -19.017 |
|    +40.515    -34.460    -53.293    -56.703    -20.703     -4.723    -50.508    -28.697    +39.357    +30.241    +37.050    -35.857    -27.548    -43.613    -12.839    -38.608     +5.191    -35.744    +11.818    +25.891    -22.822    -28.654     +0.709    +22.430     +4.180    +18.612    -10.144    +27.221     +4.906     -6.787    +23.438    +22.967    +16.259     -7.155    -14.797     +8.528    -12.560     +3.367    +20.921    -11.977     +8.262     +5.145    -25.020     -4.175    -24.275    +26.095    +17.368    +34.996    +12.670    +19.611    -33.050    -19.259    +34.511    -15.821    -38.517    +21.018    -31.887    +21.106    -30.471    +14.726    -29.378     -2.321    -31.961    +36.441     +6.803    +36.222    +16.204    -32.605     -1.161    -18.947 |
|    +44.271    -32.255    -48.585    -56.310    -17.030     +2.329    -50.356    -19.907    +38.950    +30.567    +42.085    -41.925    -26.964    -45.497     -9.034    -44.321     +6.761    -35.882    +10.848    +17.073    -25.632    -37.826     -2.238    +25.606     -0.485    +16.569    -10.340    +21.533     +3.250    -12.304    +22.388    +18.607    +18.270     -5.872    -18.476     +6.457    -16.098     +5.189    +14.811     -5.363     +9.817     -5.518    -17.869     +1.023    -20.605    +27.935    +15.001    +31.375     +9.597    +16.572    -39.441    -22.943    +38.481    -16.526    -37.602    +17.982    -28.599    +18.212    -28.946    +19.550    -31.085     +4.388    -35.154    +35.256    +12.061    +35.091    +15.356    -27.824     -0.713    -19.071 |
|    +44.757    -35.054    -46.894    -51.605    -18.185     +9.756    -52.232    -20.907    +41.832    +21.709    +40.272    -41.309    -27.875    -48.850     -9.493    -48.079     +5.219    -33.761    +10.469    +21.764    -30.764    -42.043     -1.177    +29.591     +0.309    +11.718    -18.798    +23.893     +6.270     -7.354    +25.332    +13.432    +13.499     -9.163    -23.300    +13.174    -19.044     +4.162    +17.644    -11.234    +17.456     -4.802    -10.662     +4.080    -21.846    +24.578    +17.399    +30.000    +13.533    +15.084    -35.661    -21.725    +34.338    -10.366    -37.216    +16.875    -33.184    +20.427    -28.340    +15.034    -33.080    +10.209    -35.221    +29.316    +10.737    +22.478    +18.254    -27.088     +6.364    -15.957 |
|    +41.470    -36.320    -46.161    -42.335    -20.955     +7.094    -52.048    -26.824    +46.193    +24.069    +38.275    -46.735    -23.648    -50.146     -7.100    -45.335     +3.324    -39.156     +7.359    +27.884    -34.100    -37.525     +0.435    +36.280     +4.404    +11.308    -21.996    +15.799     +8.670     -8.888    +18.921    +18.313    +14.743    -18.552    -17.443    +16.972    -11.764     +5.641    +16.582     -4.128    +22.283     -6.538     -7.040     -2.972    -17.039    +21.986    +13.032    +37.008    +10.714    +14.355    -35.867    -20.473    +33.052    -12.659    -32.455    +15.806    -30.493    +17.858    -31.694    +19.023    -34.288    +14.338    -36.419    +28.548    +17.574    +18.318    +14.403    -24.676     +8.119    -20.327 |
|    +40.583    -30.206    -43.078    -45.629    -23.220    +14.566    -50.062    -30.045    +40.422    +31.084    +37.888    -45.379    -19.875    -51.070     -8.451    -45.579     -0.068    -49.898     +1.942    +30.851    -30.861    -37.276     -0.976    +40.909     +6.717    +15.568    -30.182    +15.469    +14.340     -7.044    +17.775    +14.996    +17.270    -14.924    -20.556    +18.613    -21.028     +3.407    +22.319     -0.776    +18.535     -7.243    -15.176     -3.297    -15.401    +16.747    +16.584    +29.506     +9.110     +7.698    -32.982    -21.220    +28.556    -17.297    -31.811    +14.666    -32.637    +21.705    -30.655    +21.706    -31.357    +11.170    -34.037    +22.415    +22.024    +17.448     +8.783    -18.243     +6.810    -21.752 |
|    +36.811    -21.395    -41.735    -46.630    -22.877    +15.112    -47.714    -33.743    +43.112    +28.520    +46.113    -40.041    -21.895    -50.092     -3.559    -45.693     -7.759    -52.589     +4.763    +34.449    -32.388    -42.335     +2.192    +35.550     +9.345    +16.108    -33.092    +15.591    +20.913     -7.387    +13.855    +10.749    +16.793     -8.755    -22.533    +12.088    -22.260    +16.516    +22.138     -1.211    +16.557    -11.725    -15.193    -11.082    -10.967    +23.159     +8.090    +30.092     +7.168    +10.139    -32.119    -13.370    +24.172    -14.680    -28.489    +16.667    -33.650    +21.253    -33.961    +25.100    -28.602    +14.516    -33.330    +20.223    +18.063    +16.724    +13.400    -22.974     +8.269    -19.162 |
|    +28.706    -20.285    -45.891    -41.077    -28.706    +14.876    -45.689    -35.066    +40.993    +26.707    +47.422    -41.741    -29.535    -44.851     +2.733    -53.405    -10.910    -53.169     +6.206    +30.631    -38.055    -43.590     -2.129    +40.752     +6.981    +23.073    -32.142    +18.893    +22.393    -14.014    +11.223    +17.071    +18.784    -15.873    -20.341     +9.926    -23.509    +16.738    +23.889     -6.415    +17.268    -11.289    -15.749     -9.334    -16.254    +18.392     +1.841    +22.033     +1.160     +5.247    -26.317    -14.874    +25.859    -18.345    -28.212    +11.611    -34.858    +17.519    -34.864    +22.825    -28.417    +17.348    -26.540    +22.516    +10.193    +16.940    +11.533    -21.631     +5.485    -12.854 |
|    +24.935    -17.473    -41.867    -39.807    -28.642    +19.064    -50.962    -36.858    +35.508    +26.124    +48.474    -45.746    -25.167    -41.995     +3.145    -57.194    -10.508    -51.424     +4.009    +29.352    -41.468    -46.777     -1.053    +40.597     +6.140    +21.063    -29.384    +25.088    +23.118    -15.409    +14.842    +14.143     +8.395    -10.877    -16.887    +22.860    -21.409     +7.285    +22.831     +0.067    +22.955    -15.566    -14.826    -17.754    -20.712    +23.334     -4.278    +20.090     -2.243     +6.906    -18.517    -12.282    +24.659    -15.201    -26.529    +15.390    -33.843    +16.193    -35.039    +24.326    -26.963    +14.057    -21.549    +21.813    +11.460    +23.861    +13.550    -22.840     -1.618    -14.880 |
|    +30.286    -10.797    -37.546    -35.774    -30.389    +20.025    -46.948    -34.223    +38.452    +24.174    +49.674    -46.697    -18.970    -54.793     -0.086    -50.710    -10.534    -51.693     +1.239    +32.138    -41.867    -52.269     +3.414    +40.980     +7.225    +20.222    -29.292    +29.292    +20.844    -23.760    +23.598    +18.921     +7.140    -17.509    -19.077    +16.732    -19.033     +3.432    +20.502     -4.816    +28.386    -10.107    -17.063    -18.792    -15.141    +23.721    -10.162    +16.001     -9.672     +5.892    -17.421     -9.062    +24.614    -15.706    -26.944    +16.282    -30.817    +16.711    -29.773    +24.689    -20.284     +7.273    -24.540    +21.284     +7.622    +24.857    +12.623    -19.515     -1.457    -10.232 |
|    +26.765    -16.065    -33.574    -35.201    -33.525    +23.212    -44.278    -37.834    +38.479    +17.081    +45.005    -50.643    -14.385    -60.679     -0.643    -46.119     -4.565    -55.499     -3.456    +27.317    -42.493    -47.568     +3.107    +45.361     +6.437    +24.454    -29.711    +29.826    +13.905    -26.234    +23.604    +23.386     +4.630     -6.250    -22.839    +13.625    -14.137    +11.316    +23.924     -9.036    +26.753    -22.341    -20.156    -23.320    -18.112    +24.298     -8.647    +12.800    -10.577     +0.639    -14.782    -10.305    +20.674    -14.983    -29.362    +16.175    -25.561    +12.681    -29.781    +17.353    -18.636     +6.922    -24.013    +25.593     +9.295    +21.027    +15.912    -24.324     +0.613    -12.100 |
|    +25.360    -15.784    -36.176    -28.796    -27.285    +22.263    -44.239    -37.120    +35.331    +16.959    +44.310    -59.532    -13.492    -57.313     +0.748    -51.873     -4.360    -50.016     -2.911    +29.737    -44.827    -49.065     +6.712    +43.811    +14.027    +23.851    -30.027    +35.101    +20.018    -22.516    +31.266    +29.620    +13.958     +2.367    -22.581    +10.176    -18.531     +4.978    +24.713    -10.923    +18.991    -26.435    -21.399    -24.702    -11.955    +21.984    -14.105    +19.337    -11.146     -0.568    -16.346     -9.329    +18.123    -10.339    -24.792    +16.113    -23.439     +7.289    -25.572     +9.681    -21.473     +3.491    -23.939    +27.977     +9.896    +17.995    +11.852    -19.302     +3.536    -13.519 |
|    +27.317    -14.634    -37.974    -29.835    -24.131    +24.615    -40.706    -35.960    +29.054    +11.972    +50.861    -54.364    -14.791    -55.514     +1.843    -57.318    -10.694    -45.160     +0.627    +25.304    -43.572    -46.886     +7.693    +41.711    +16.977    +29.960    -30.207    +33.449    +20.839    -19.514    +28.168    +40.907    +12.774     +4.209    -25.241    +13.614    -12.481     +8.476    +21.566     -8.627    +32.822    -22.570    -28.380    -27.581    -10.608    +19.182    -11.156    +18.525    -10.893     -7.056    -19.196    -16.476    +13.839     -5.683    -21.781    +16.198    -22.562     +6.194    -16.549     +9.854    -19.144     +1.848    -28.882    +24.612    +11.870    +19.865    +13.128    -19.565     +5.851    -19.170 |
|    +25.378    -17.852    -32.026    -34.578    -24.010    +19.445    -34.284    -37.322    +26.462    +12.057    +56.150    -50.026    -18.078    -55.509     +8.538    -54.767    -10.274    -53.726     +4.743    +18.833    -41.819    -45.290    +10.784    +41.935    +18.613    +39.541    -32.567    +36.681    +19.579    -19.483    +35.855    +37.039    +14.205     -1.880    -29.608    +17.034     -9.682     +1.073    +22.092     -7.697    +28.433    -22.720    -16.849    -33.861    -12.289    +21.552    -10.098    +20.724    -10.330     -6.431    -24.206    -19.664     +8.078     -1.985    -17.739    +13.908    -12.700    +10.298    -15.711     +6.177    -20.087     +0.882    -27.771    +21.782     +8.734    +19.377     +9.211    -19.924     +7.775    -17.904 |
|    +30.633    -16.350    -36.022    -30.993    -24.511    +14.984    -31.468    -42.356    +20.828    +15.218    +51.475    -50.804    -14.887    -52.201    +10.311    -52.352    -12.981    -52.399     -0.211    +22.552    -34.882    -45.161    +16.650    +38.229    +24.903    +35.237    -28.795    +38.426    +21.180    -28.810    +37.266    +32.194    +13.694     -2.918    -37.120    +25.100     -9.863     +8.328    +24.406     -6.758    +30.825    -25.676    -18.906    -22.026    -16.489    +20.967    -14.839    +22.592    -13.366     -9.525    -27.465    -24.303     +4.523     +4.869    -19.129     +7.848     -7.102    +11.783    -14.292     +7.111    -21.309     +4.841    -22.775    +24.124     +6.671    +21.451     +5.825    -25.111     +8.038    -17.312 |
|    +26.528    -19.804    -33.103    -32.179    -17.732    +17.446    -34.377    -40.300    +23.112    +14.956    +47.575    -49.995     -9.544    -50.588     +3.832    -53.402    -16.325    -50.826     -5.970    +24.196    -39.921    -38.498    +17.572    +43.937    +26.922    +40.387    -28.301    +50.870    +13.850    -26.882    +33.173    +31.924    +18.040     -9.728    -35.343    +23.206    -16.076    +17.056    +17.945     -1.827    +28.101    -24.584    -16.638    -20.602    -13.603    +30.857    -12.838    +23.711    -12.783    -13.206    -25.301    -26.153     +5.878    +12.288    -15.956     +5.001     -6.904    +12.121     -9.271    +10.565    -21.214     +2.152    -18.936    +19.736     +0.921    +23.297     +4.998    -25.717     +7.046    -17.391 |
|    +28.683    -20.755    -37.024    -29.751    -20.270    +22.840    -31.474    -30.506    +29.514     +9.509    +44.470    -48.989     -9.343    -49.472     +9.013    -42.185    -15.906    -48.980     -6.194    +19.464    -46.569    -36.922    +15.885    +39.540    +28.013    +39.142    -23.771    +48.383    +20.100    -27.379    +35.231    +36.679    +19.017     -8.970    -35.154    +34.135    -26.466    +23.413    +25.129     +0.505    +23.566    -19.338    -13.792    -24.368    -13.629    +31.633     -6.472    +25.353    -21.780    -15.186    -25.491    -27.948     +5.512    +12.899    -13.106     +8.739     -4.613    +11.197    -11.595    +10.140    -18.084     +1.903    -17.767    +19.443     -0.938    +28.459     +4.632    -23.754     +8.694    -18.793 |
|    +28.931    -19.125    -32.311    -29.614    -19.015    +18.033    -39.228    -29.294    +31.061     +7.006    +38.413    -45.103    -11.453    -47.642     +9.427    -42.678    -15.402    -46.936    -14.508    +14.634    -45.687    -49.076    +16.353    +34.894    +29.970    +48.153    -23.479    +45.481    +17.414    -18.788    +43.736    +33.777    +21.463    -14.398    -32.442    +32.429    -25.666    +29.868    +24.610    +11.183    +25.415    -18.284    -16.940    -21.563    -18.189    +27.314     -8.005    +30.300    -24.262    -15.208    -23.730    -26.896     -0.780     +7.355    -16.784     +9.514     -5.069     +6.294    -12.769     +5.130    -12.008     +0.316    -15.543    +20.202     -1.622    +24.549     +3.734    -24.739     +8.516    -20.845 |
|    +29.387    -18.575    -32.386    -32.082    -26.466    +13.472    -41.259    -27.301    +25.363    +13.539    +36.339    -41.860     -4.484    -39.165     +9.566    -40.965    -17.646    -40.759    -17.099     +9.721    -48.479    -46.596    +21.071    +33.172    +22.989    +46.459    -28.077    +43.184    +12.726    -18.911    +41.992    +39.028    +23.050    -18.080    -44.487    +33.361    -29.468    +28.770    +30.636    +10.947    +26.629    -16.994    -10.784    -23.744    -16.591    +32.505    -14.980    +29.610    -16.598    -21.994    -25.243    -22.124     -0.809     +5.786    -18.040    +15.991     -8.455     -1.525    -14.575     +5.732     -9.815     -4.771    -17.151    +22.464     -0.498    +21.708     +2.433    -25.044    +12.410    -19.404 |
|    +26.469    -15.971    -34.275    -35.772    -26.253     +8.089    -38.872    -24.173    +27.448    +17.108    +35.475    -34.900     -6.615    -39.075    +12.109    -35.484    -22.111    -39.805    -14.371     +7.875    -54.017    -45.181    +25.788    +43.535    +32.873    +39.186    -19.803    +46.448     +7.870    -14.435    +43.963    +31.394    +35.266    -14.712    -42.327    +36.367    -24.551    +28.287    +31.410     +8.612    +33.574    -22.467     -9.487    -22.858    -18.461    +29.129    -13.922    +22.323    -17.965    -23.341    -28.173    -19.538     +3.002     +3.891    -17.935    +20.886    -11.125     -4.442    -13.102     +3.509     -5.133     -5.554    -13.916    +20.774     +2.973    +21.493     +3.880    -23.684    +12.375    -20.653 |
|    +24.306    -14.186    -38.666    -40.288    -19.780    +10.756    -39.539    -25.844    +29.872    +11.017    +31.424    -27.465     -8.979    -33.213    +14.338    -32.639    -22.532    -40.062    -21.997     +2.522    -44.946    -41.347    +26.806    +47.046    +31.578    +33.147    -21.636    +47.360     +6.665    -12.744    +43.616    +37.011    +38.773    -18.909    -49.996    +35.672    -28.489    +22.634    +29.502     +6.285    +38.309    -30.706    -11.653    -25.905    -11.588    +27.580    -15.361    +25.472    -22.976    -10.874    -22.204    -24.182     +1.720     +3.404    -23.464    +22.258     -9.204     -5.438    -16.864     +5.603     -5.968     -2.922    -15.724    +20.377     -1.650    +21.435     +2.759    -20.438     +9.034    -20.901 |
|    +24.908    -17.457    -41.053    -37.252    -18.130    +10.927    -35.941    -18.752    +31.674    +17.826    +28.385    -32.166     -7.791    -25.925    +14.566    -31.016    -22.700    -40.882    -22.622     +5.445    -45.908    -44.510    +38.132    +38.102    +31.928    +42.388    -22.355    +42.130     -0.622     -4.687    +46.831    +35.566    +35.880    -21.070    -48.437    +36.473    -27.099    +22.421    +33.641     -0.678    +40.338    -35.533    -16.001    -30.580     -3.449    +25.568    -13.500    +19.940    -21.587     -9.652    -18.020    -27.616    +10.770     +5.720    -24.796    +19.943     -6.270     -3.188    -16.612     +8.716     -6.210     +2.248    -11.335    +16.399     -0.681    +22.767     +6.112    -22.095     +8.204    -16.816 |
|    +28.817    -23.689    -34.494    -35.592    -18.376     +8.822    -40.097    -22.542    +29.199    +13.863    +25.366    -26.399     -4.662    -26.453    +10.024    -26.154    -28.861    -34.510    -21.138     +0.053    -44.895    -39.324    +27.894    +34.641    +32.411    +45.884    -20.250    +39.267     +5.815     -7.460    +55.575    +35.434    +40.379    -23.598    -43.021    +34.594    -30.227    +22.742    +36.492     -0.951    +42.607    -43.012    -19.885    -36.782     -4.274    +20.835    -17.823    +16.460    -17.555    -11.023    -23.105    -23.491    +17.893    +13.310    -26.654    +20.902     -7.543     +1.860    -17.487    +14.600    -10.541     +4.044    -10.528    +15.255     -0.113    +20.966     +3.259    -21.934     +5.309    -12.411 |
|    +36.678    -24.314    -30.598    -32.413    -18.667     +5.642    -37.549    -18.478    +28.268    +14.588    +25.986    -25.186     -6.246    -28.351    +11.292    -25.182    -24.036    -36.257    -21.805     -2.998    -50.615    -34.992    +24.787    +29.018    +41.683    +46.660    -11.548    +48.297     -0.573     -4.364    +45.661    +35.218    +35.837    -22.791    -43.506    +30.514    -40.415    +19.791    +40.543     -1.994    +45.722    -40.156    -20.226    -40.139     -5.891    +15.552    -26.752    +17.767    -11.589     -6.527    -23.213    -24.825    +10.410     +9.624    -30.486    +17.174     -6.248     +1.722    -17.832    +18.479    -10.397     +8.950    -11.777    +14.014     +4.464    +17.802     +3.989    -20.720     +2.334    -13.160 |
|    +34.080    -26.784    -30.802    -34.995    -15.103     +7.991    -34.618    -16.168    +25.279    +12.716    +27.322    -27.413     -4.888    -24.040    +15.892    -23.729    -17.677    -28.391    -25.347     +4.266    -42.044    -31.134    +27.679    +22.729    +35.771    +46.569    -10.934    +58.933     -0.168    -10.546    +47.099    +30.000    +40.686    -26.700    -36.582    +26.417    -39.088    +23.224    +46.502     +0.569    +51.661    -40.082    -21.020    -45.390     -9.970    +17.456    -26.467    +14.235    -13.060     -7.924    -27.544    -29.873     +8.751     +1.483    -25.886    +21.044     -8.600     +3.983    -23.124    +15.407    -13.035    +10.260    -14.972    +11.358     +8.090    +14.358     +7.860    -14.668     +5.530    -12.075 |
|    +28.735    -25.431    -37.123    -34.673     -9.492     +5.574    -32.229    -19.596    +23.574     +8.459    +25.078    -25.923     -6.767    -28.959     +9.500    -28.234    -19.740    -30.247    -25.066     +0.300    -38.279    -26.401    +32.518    +20.897    +36.063    +53.830     +2.076    +51.817     -3.892    -14.137    +49.023    +25.180    +35.581    -30.816    -37.648    +25.323    -44.172    +17.623    +53.906     +0.199    +49.190    -40.197    -21.587    -41.845     -8.944    +23.202    -24.056    +14.655    -18.466     -8.735    -26.871    -24.884     +7.335     +4.685    -18.735    +23.825    -17.033     -0.079    -22.662    +17.716    -11.938    +13.553    -19.811    +13.303    +12.970     +8.621    +10.520    -11.874     +4.748    -13.606 |
|    +26.864    -21.431    -38.149    -34.949    -10.065     +3.368    -26.436    -18.940    +21.490     +9.731    +27.120    -30.952     -1.557    -27.262    +10.272    -19.660    -19.893    -29.808    -10.078     -5.520    -33.441    -23.593    +27.579    +18.952    +37.816    +51.876     -1.724    +55.980     -4.668     -5.304    +52.993    +24.412    +32.462    -34.723    -35.276    +24.343    -46.365    +19.161    +51.295     -0.971    +53.682    -44.145    -23.771    -37.346    -10.126    +31.201    -23.042    +23.483    -24.639    -14.719    -20.937    -25.039     +7.749     +1.832    -24.899    +17.577    -23.071     -0.782    -24.948    +17.737    -14.547    +11.918    -19.451    +14.188    +17.813     +4.669    +10.421    -10.594     +2.102    -10.862 |
|    +26.248    -19.954    -29.765    -37.473    -13.392     +5.336    -27.763    -19.721    +16.748     +7.853    +26.884    -30.821     -3.731    -29.978     +7.323    -29.153    -19.092    -27.413    -13.373     -8.447    -29.273    -20.737    +31.696    +11.362    +44.758    +44.961     -2.911    +51.160     -9.535     -1.779    +49.643    +28.698    +41.715    -36.323    -30.183    +25.235    -48.939    +17.760    +49.613     -9.149    +53.978    -41.681    -21.737    -35.656    -15.071    +34.004    -17.625    +27.312    -29.495    -21.525    -17.822    -18.621     +8.173     +0.384    -23.585    +19.968    -13.001     +3.501    -32.734    +20.629    -14.354    +14.286    -20.192    +14.078    +20.010     +7.128    +13.366    -11.433     -0.060     -5.696 |
|    +27.574    -16.297    -27.746    -26.216    -16.696     +4.054    -28.969    -18.849    +17.838     +3.641    +29.629    -30.009     -4.652    -27.995    +12.255    -28.957    -10.555    -19.764    -12.928     -1.665    -25.144    -15.533    +32.119    +19.313    +41.576    +49.618     -1.855    +43.322    -14.975     +4.122    +49.265    +24.587    +47.528    -32.220    -35.841    +26.292    -49.647    +14.205    +49.975     -8.793    +51.138    -40.076    -24.690    -39.006    -19.624    +39.542    -19.238    +31.747    -32.364    -23.805    -23.416    -18.153     +6.685     -0.842    -28.837    +20.503    -17.650    +11.683    -25.770    +24.530    -12.336    +17.131    -20.622    +12.582    +14.710     +8.662    +15.493    -10.710     -6.645     -3.697 |
|    +21.174    -17.569    -24.889    -22.452    -17.676    +12.139    -30.528    -18.442    +18.005     +5.159    +30.143    -31.650     -5.164    -33.203    +13.141    -25.624     -9.839    -21.959    -12.371     -7.028    -28.961    -10.190    +35.502    +15.188    +38.126    +41.601     +1.197    +41.025    -11.058    +12.776    +52.967    +19.455    +51.296    -38.355    -42.851    +19.972    -42.913    +13.318    +50.105     -7.883    +48.752    -33.358    -35.425    -37.503    -24.689    +41.125    -21.424    +29.504    -27.851    -21.811    -24.940    -23.620     +2.044     +1.438    -24.860    +21.245    -16.602     +3.989    -26.626    +29.104    -21.144    +18.680    -16.821    +13.858    +14.633    +12.935    +17.702    -10.223     -8.553     -2.566 |
|    +17.848    -10.625    -23.470    -19.803    -16.120    +18.008    -26.274    -22.681    +18.899     +6.349    +27.417    -29.669     -0.404    -31.761     +3.123    -23.475    -12.764    -20.937    -10.940     -8.613    -23.531    -21.988    +27.620    +13.465    +40.033    +39.512     +4.185    +40.247    -18.407    +15.821    +45.060    +20.885    +53.623    -40.833    -43.267    +24.615    -41.246    +11.327    +51.760    -12.707    +43.149    -30.011    -36.090    -44.644    -29.594    +43.471    -25.001    +30.937    -27.576    -18.346    -34.382    -32.967     +7.759     +2.122    -21.250    +20.539    -19.733     +4.974    -28.947    +21.541    -20.908    +19.501    -14.735    +15.180    +15.115    +11.071    +17.329    -10.972     -6.875     -1.789 |
|    +15.485     -4.150    -22.994    -17.430    -18.037    +16.782    -21.414    -29.816    +22.631     +9.220    +28.697    -35.387     -1.852    -27.589     +6.595    -20.750    -15.237    -21.016    -13.924    -10.217    -28.755    -18.438    +27.656     +8.181    +29.589    +38.506     +4.430    +39.599    -22.079    +14.448    +46.787    +16.183    +58.680    -40.749    -35.127    +26.335    -47.803     +8.651    +42.970    -17.608    +42.853    -29.445    -40.350    -43.439    -35.814    +41.231    -21.473    +30.697    -23.134    -14.700    -34.122    -36.556     +5.566    +11.326    -25.016    +20.760    -18.933     +4.114    -30.041    +23.421    -10.965    +17.507    -25.548    +15.988    +16.172     +7.785    +15.755    -13.282     -4.348     -5.769 |
|     +8.217     -4.148    -18.156    -16.695    -21.698    +20.280    -20.054    -31.034    +15.251     +7.084    +28.967    -27.433    -10.268    -24.286     +7.971    -20.769    -12.463    -21.052    -17.021     -1.746    -33.650    -17.643    +26.200     +9.801    +28.237    +36.795    +12.738    +36.870    -20.858    +15.689    +49.406    +13.823    +49.020    -43.364    -34.803    +23.235    -51.993    +10.435    +40.704    -23.043    +43.940    -30.172    -43.654    -40.927    -31.567    +44.704    -21.497    +38.170    -23.220    -15.115    -40.900    -37.859    +14.328     +9.335    -32.011    +19.944    -13.104     +3.187    -31.491    +20.639    -12.911     +8.247    -23.653    +13.304    +22.170     +9.059    +13.489    -11.193     +0.958     -8.958 |
|    +10.207     +1.169    -18.464     -9.816    -21.106    +19.712    -22.939    -27.486    +14.564     +8.237    +41.614    -25.834     -7.071    -22.381    +11.596    -18.920    -18.472    -20.840    -24.149     -1.515    -29.224    -17.455    +19.080     +9.642    +30.146    +33.858    +12.997    +39.943    -23.231    +16.538    +47.861    +12.725    +44.518    -48.564    -28.550    +17.144    -47.986     +6.263    +49.558    -24.774    +39.541    -32.243    -42.827    -38.275    -30.723    +46.663    -10.126    +39.407    -19.733    -16.810    -38.872    -37.372    +14.684    +11.576    -37.852    +29.345     -9.979     +0.706    -26.369    +19.970    -14.764    +13.777    -19.998    +19.466    +20.166     +9.132    +11.855    -13.426     +3.101    -13.872 |
|     +7.721     +0.723    -13.575     -7.957    -21.266    +21.978    -21.363    -27.319     +9.336     +6.776    +32.509    -25.222     -7.082    -20.261     +8.019    -17.421    -19.790    -29.865    -17.389     -2.293    -34.295    -16.508    +22.976     +3.336    +28.833    +32.647     +7.740    +38.901    -24.778    +10.336    +43.084    +10.450    +47.569    -42.436    -22.849    +12.466    -48.659     +0.082    +54.812    -19.772    +46.700    -31.590    -42.895    -34.216    -31.749    +46.494     -6.638    +47.712    -22.068    -13.523    -44.173    -38.553    +18.726     +7.520    -42.045    +35.377    -12.593     -1.918    -19.356    +20.263    -17.620    +15.814    -20.542    +17.972     +7.723     +9.446    +12.591    -16.480     +4.527    -13.925 |
|     +7.352     -1.420    -12.876     -8.686    -22.043    +20.622    -16.834    -31.498    +15.375     +1.740    +26.891    -31.792     -0.657    -20.895    +13.262    -17.203    -27.585    -24.654    -18.095     -2.494    -26.832    -17.983    +21.880     +8.763    +29.800    +38.333     +9.770    +35.210    -21.029    +13.419    +40.329     +6.715    +45.219    -37.121    -22.231     +1.677    -53.624     -5.573    +54.865    -21.835    +53.086    -25.011    -36.363    -29.915    -33.159    +47.127     -5.121    +48.327    -16.755    -12.569    -45.279    -41.105    +19.393     +6.785    -42.467    +37.427    -11.176     -5.562    -25.461    +18.919    -16.984    +14.353    -16.956    +13.297    +10.522    +22.369    +12.578    -19.561     +5.246    -13.586 |
|     +8.696     +1.852    -13.844     -6.334    -15.781    +19.820    -11.597    -24.017    +14.283     -0.369    +23.468    -26.774     +5.916    -22.454    +13.785    -25.708    -20.231    -27.437    -19.364     -4.461    -29.164    -15.416    +27.871     +9.629    +30.861    +35.239     +8.118    +33.690    -10.710    +17.296    +38.878     +8.839    +41.226    -39.907    -17.245     -2.036    -48.439     -4.021    +58.990    -24.745    +52.294    -28.688    -33.925    -29.212    -39.539    +50.783     -2.863    +46.877    -10.859    -10.385    -50.311    -42.980    +22.160     +8.355    -44.908    +33.188    -17.303     -2.901    -32.491    +19.516     -8.844    +10.052    -19.410    +16.573     +7.285    +23.437     +3.234    -22.373     -0.754    -15.180 |
|     +7.106     -3.157    -14.543    -10.586    -12.399    +21.260    -16.963    -21.864     +4.564     -3.886    +24.542    -25.019    +11.220    -29.075    +26.510    -21.615    -19.975    -21.143    -16.916     -5.660    -29.721    -15.917    +29.067    +12.590    +34.146    +36.834     +1.017    +32.047    -15.534    +15.690    +33.005     +6.979    +39.544    -41.798    -11.577     +0.493    -48.763     -9.780    +57.984    -26.012    +44.171    -25.948    -41.342    -23.692    -36.103    +47.141     -4.865    +47.714    -12.743     -5.041    -54.048    -43.422    +24.691     +8.860    -42.119    +30.614    -20.727     -2.833    -37.519    +24.240     -4.199     +6.521    -17.335    +19.816     +6.893    +21.274     +8.439    -29.563     +5.063    -15.136 |
|     +8.441     -4.633    -14.763     -5.275    -13.286     +7.115    -10.601    -16.292     +2.100     -7.492    +22.368    -24.134    +12.840    -30.046    +23.937    -26.949    -20.854    -21.506    -18.832    -10.427    -30.555    -18.198    +28.960    +14.425    +37.149    +33.977     -3.133    +29.098    -14.948     +8.292    +33.158     -0.080    +38.290    -40.525    -13.415     +2.042    -51.684     -8.223    +47.551    -27.864    +42.603    -22.953    -49.204    -31.892    -37.073    +50.255     +2.170    +48.715     -7.564     -2.437    -48.943    -46.442    +25.238     +4.075    -42.175    +33.358    -24.547     -0.193    -39.721    +25.305    -10.934     +4.863    -12.575    +24.490     +5.797    +23.010    +10.693    -23.843    +12.478    -16.752 |
|    +12.980     -6.712    -12.112    -14.470    -12.881     +7.064     -9.578    -18.028     -2.526    -15.945    +20.512    -30.525    +18.036    -21.500    +22.973    -24.160    -24.164    -22.690    -19.786    -11.240    -32.380    -19.919    +33.148    +16.467    +35.265    +33.251     -0.736    +31.132    -10.715    +10.791    +32.203     -3.690    +35.229    -43.747    -14.347     +1.328    -47.045     -5.825    +42.321    -37.713    +34.301    -16.469    -48.233    -33.012    -39.169    +44.805     +0.855    +49.278    -10.473     -3.999    -51.233    -40.364    +29.056     -2.297    -44.115    +34.186    -26.052     +0.616    -34.282    +27.028    -13.733    +11.641    -16.897    +25.248     +4.166    +22.445    +10.765    -22.309     +5.933    -29.142 |
|    +13.365     -5.608    -11.203    -13.732     -3.834     +5.487     -5.206     -9.853     -4.851    -15.530    +17.329    -32.358    +11.914    -23.948    +22.920    -17.479    -31.100    -23.937    -23.394     -8.931    -32.992    -22.088    +33.758    +19.492    +29.982    +36.900     +1.390    +32.376     -8.521    +11.668    +26.200     +2.836    +35.393    -43.457    -14.451     +5.740    -41.619     -9.328    +40.990    -35.664    +29.225    -18.649    -53.002    -27.714    -47.932    +47.830     -1.716    +50.266     -6.076     -2.786    -48.514    -30.620    +28.462     -3.686    -49.053    +36.222    -26.639     +5.279    -36.198    +23.516    -21.375    +13.044    -24.907    +19.568     +7.634    +27.036     +9.653    -24.187    +12.029    -22.413 |
|    +12.476    -12.472    -19.705     -9.320     -4.021     +6.029     -5.201    -13.776     -4.509    -20.568    +23.036    -23.085    +17.915    -18.525    +22.071    -15.026    -29.313    -28.659    -30.670     -9.782    -37.736    -23.872    +31.806    +14.640    +31.902    +35.353     +1.093    +31.976     -7.910    +10.941    +29.240     +2.093    +39.973    -35.772    -13.216     +3.282    -38.971    -15.353    +36.185    -32.510    +28.187     -9.883    -50.987    -24.362    -45.892    +54.600     -1.909    +45.929     -7.070     -3.881    -44.692    -31.828    +33.107    -10.484    -50.046    +30.317    -27.684     +7.935    -35.642    +21.964    -24.769    +15.173    -30.558    +19.186    +14.707    +24.753     +6.805    -34.049    +10.359    -18.618 |
|     +9.646    -14.160    -11.951     -8.993     -0.034     +5.302     -3.452    -13.598     -6.263     -8.700    +17.899    -22.629    +14.093    -17.261    +28.577    -13.591    -32.483    -23.815    -33.978     -6.835    -41.462    -24.857    +24.998    +14.741    +34.555    +35.676     -2.425    +31.174    -11.894     +9.908    +33.194     +5.803    +35.638    -29.056    -19.354     -2.088    -35.841    -11.907    +37.610    -35.410    +31.385     -3.627    -47.081    -22.628    -50.002    +55.382     +5.121    +45.516    -13.115     +4.849    -42.873    -30.284    +35.134     -8.681    -42.834    +29.241    -32.856    +13.076    -36.821    +24.911    -29.575    +14.532    -35.429    +26.741    +16.146    +22.297     +3.999    -33.400     +4.544    -21.606 |
|    +19.863     -7.470    -11.763     -9.756     -5.155     +9.872     -1.965    -20.091     -3.456     -8.789    +15.222    -16.039    +16.369    -12.121    +29.301    -15.364    -34.706    -23.758    -33.842     -7.450    -46.645    -21.350    +28.474    +14.501    +33.678    +35.234     -0.728    +30.686    -14.766     +9.401    +37.510    +11.772    +33.510    -28.743    -15.008     -6.769    -30.605    -14.210    +37.084    -30.950    +23.958     -8.081    -42.486    -17.224    -51.895    +52.802     +6.481    +47.604    -10.826     +6.944    -41.225    -32.529    +33.924    -10.153    -40.635    +23.110    -38.999    +19.996    -37.991    +24.976    -33.237    +12.171    -33.440    +28.966    +17.742    +28.538    +17.978    -25.839    +10.394    -22.231 |
|    +10.268     -8.707     -5.264     -6.872     -6.061     +8.535     -3.612    -16.724     +5.861     -6.868    +16.527    -13.106    +16.185    -10.498    +28.686    -14.207    -36.587    -26.159    -32.862     -9.605    -38.448    -24.594    +31.120    +17.742    +31.623    +34.355     +2.077    +34.882    -13.026     +7.746    +40.187    +15.587    +31.064    -23.227    -11.366     +0.654    -32.378    -15.516    +38.363    -31.648    +25.148     -4.833    -45.729    -10.890    -44.800    +51.867     +6.775    +48.211     +0.730     +2.327    -45.955    -29.383    +34.151    -15.887    -38.165    +15.804    -36.897    +22.424    -41.731    +28.243    -35.435    +12.520    -39.162    +36.810    +11.311    +26.946    +25.114    -24.709     +6.088    -26.368 |
|     +7.328     -5.786    -14.511     -2.534    -13.074    +17.101    -11.394    -13.967     +0.870     -5.789    +11.931    -15.868    +12.862    -11.276    +29.728    -11.069    -37.366    -27.710    -30.548    -13.604    -34.014    -25.383    +36.454    +16.788    +32.519    +35.266     +5.135    +38.333    -14.423     +5.109    +37.703    +14.339    +29.152    -24.811    -11.686     -3.503    -32.880    -13.103    +27.936    -30.219    +25.824     -4.821    -41.221    -15.547    -40.625    +45.193    +14.781    +49.121     +5.972     +3.704    -51.645    -22.967    +29.905    -15.482    -38.656    +17.462    -41.802    +31.077    -41.294    +23.625    -37.959    +10.396    -39.397    +42.665    +15.517    +29.171    +20.898    -29.061     +1.670    -21.470 |
|     +2.371     +4.669     -9.157     -3.123    -10.240    +12.255    -17.418    -13.592     +6.799     -8.049    +15.441    -16.394    +14.768     -9.734    +23.587    -13.349    -32.420    -22.683    -27.512    -13.952    -36.536    -20.148    +35.774    +16.181    +33.282    +38.263     +1.738    +39.980    -11.710     -0.297    +37.063    +10.542    +28.952    -26.536    -16.460     +0.287    -31.166    -10.442    +31.993    -33.893    +22.160     -6.185    -38.863    -13.557    -39.347    +34.428    +19.975    +52.181     +6.335     +8.699    -49.226    -26.030    +32.433    -22.431    -36.637    +15.094    -42.644    +27.458    -36.470    +24.694    -42.195     +6.275    -45.116    +40.174    +22.520    +36.122    +20.802    -38.913     +1.959    -15.640 |
|     +1.841     +6.985    -10.239    -10.287    -24.585    +15.039     -9.918    -13.752     +6.288     -7.491    +15.898    -19.663    +11.522    -15.767    +22.571    -14.043    -28.700    -13.914    -30.493    -13.922    -36.359    -17.623    +32.577    +13.185    +41.389    +42.295     +1.612    +38.089     -9.319     +1.522    +33.922     +6.088    +29.534    -27.902    -15.381     +3.463    -27.135    -10.517    +31.214    -27.034    +19.707     -8.114    -39.174     -8.299    -32.779    +37.233    +17.804    +50.006    +12.286    +13.632    -42.760    -27.095    +38.650    -22.610    -35.972    +17.348    -44.049    +28.641    -36.392    +18.236    -46.635     +6.511    -54.102    +40.709    +14.187    +35.947    +17.695    -38.520     -1.211    -18.910 |
|     -1.903     +9.956     -8.548     -8.213    -19.282    +10.412    -13.644    -20.163     +4.252     -5.380    +17.409    -21.431     +9.613    -18.158    +20.093    -10.208    -17.273    -15.534    -27.673    -14.601    -34.728    -15.685    +32.568     +9.723    +42.116    +43.858     -2.921    +37.703     -3.559     +4.007    +31.020    +11.023    +31.478    -30.849    -17.946     +3.639    -32.185     -9.967    +28.460    -23.743    +22.804     -4.273    -35.590     -5.124    -32.475    +39.175    +18.447    +38.001    +12.331    +18.716    -44.681    -19.809    +44.938    -20.045    -40.958    +15.742    -44.615    +31.392    -34.237    +11.100    -45.475    +12.432    -50.198    +45.868    +16.376    +42.571    +24.154    -36.907     +5.117    -27.917 |
|     +0.834     +7.116    -14.639     -3.561    -16.118    +15.671    -14.545    -22.150     +1.936     -2.934    +24.551    -23.602     +8.782    -21.535    +13.961    -10.656    -19.678    -14.591    -25.952    -16.457    -28.626    -13.641    +35.824    +11.248    +40.526    +45.901     -0.991    +34.561     -5.270     +8.566    +30.252     +7.869    +32.472    -25.816    -14.582     +5.995    -32.116     -3.664    +30.189    -23.782    +22.943     -1.258    -26.232     -5.911    -38.139    +34.671    +15.738    +34.243    +10.865    +25.816    -41.057    -17.511    +47.409    -25.308    -46.374    +12.758    -40.526    +30.111    -34.493    +19.099    -52.121     -1.125    -51.486    +49.004     +9.530    +39.109    +21.902    -34.989    +12.225    -31.061 |
|     +2.254     -1.685     -9.358     -3.557    -14.790    +21.716     -6.873    -20.396     +4.549     -3.262    +27.715    -25.624     +1.915    -18.606     +9.307    -13.420    -20.254    -13.753    -17.777    -13.827    -24.372    -14.014    +37.288    +14.473    +38.728    +39.373     +0.220    +32.655     -6.783     +4.659    +33.919    +10.115    +34.801    -29.728    -17.120     +2.870    -34.621     -3.031    +31.714    -17.166    +19.460     -0.821    -26.989     -4.760    -38.391    +31.490    +11.651    +36.145    +15.504    +27.665    -31.375    -17.507    +49.224    -28.913    -44.119    +17.073    -43.337    +37.933    -31.565    +18.819    -43.450     -1.336    -46.954    +53.706    +14.502    +40.277    +19.020    -46.625    +14.253    -37.120 |
|    +12.750     -3.288     -6.712     -1.731     -9.959    +19.693     -8.615    -30.418     +8.302     -5.835    +29.322    -29.820     -3.882    -16.042    +13.223    -16.689    -17.370    -17.166    -15.733    -16.307    -23.687    -11.731    +34.981    +13.806    +36.323    +32.346     +0.731    +34.683    -15.977     +8.545    +33.429     +7.744    +29.727    -28.841    -17.841     +5.436    -32.461     -0.847    +33.583    -13.793    +19.063     +0.828    -32.444     -5.268    -30.624    +30.024    +14.936    +31.902    +14.749    +23.706    -34.601    -10.849    +52.527    -31.266    -38.614    +15.700    -48.390    +36.046    -37.541    +14.394    -44.772     -3.638    -49.990    +51.725     +7.782    +47.121     +8.473    -47.067    +18.288    -33.693 |
|    +15.051     -8.126     -8.987     -0.849    -11.106    +19.992     -6.121    -28.397     +2.352     +2.143    +28.889    -26.507     -3.288    -21.416    +10.361    -18.742    -15.313    -15.733    -14.321     -9.361    -22.432    -14.895    +27.520    +12.890    +31.857    +29.825     +3.782    +32.153    -16.560     +6.619    +37.494     +9.453    +34.312    -31.442    -16.105     +6.863    -33.109     -1.691    +30.867    -18.154    +17.863     -3.292    -28.676     -8.974    -26.562    +29.084    +20.433    +31.413    +14.835    +24.578    -34.417     -6.451    +42.749    -34.506    -39.695     +6.960    -54.358    +27.227    -39.914    +13.044    -46.942     -1.440    -51.238    +43.132     +2.143    +54.518    +12.476    -55.746    +16.856    -42.247 |
|    +10.163    -12.172    -11.791     -7.989     -9.315    +17.245    -10.213    -28.031     +5.471     +4.589    +35.362    -25.202     +5.175    -27.426     +9.573    -18.627    -14.050    -17.589    -15.075     -4.236    -27.038    -13.737    +23.345     +5.823    +24.572    +30.633     +9.319    +27.949    -16.872    +11.125    +34.877     +9.698    +33.747    -28.910    -17.638     +8.419    -33.762     -2.279    +25.912    -23.301    +22.496     -9.208    -27.001     -3.462    -26.911    +23.762    +16.891    +36.322    +15.109    +23.093    -31.962     -7.623    +39.367    -39.754    -32.867    +10.423    -57.260    +37.156    -37.543    +10.259    -46.131     +0.924    -46.614    +48.798     -3.468    +59.263     +4.883    -51.438    +21.713    -41.396 |
|    +14.361     -3.612    -20.540    -11.521     -9.915    +13.114    -11.072    -25.123     +6.983     -0.448    +24.135    -27.605     -1.136    -29.082    +10.973    -20.083     -9.806    -22.281    -14.169     +0.721    -26.235    -15.713    +12.294     +3.644    +19.208    +30.197     +8.246    +31.001    -15.699    +16.008    +33.868     +8.551    +36.317    -29.310    -19.219     +7.071    -30.752     -6.209    +26.753    -23.331    +24.628    -10.559    -25.388     -3.501    -25.165    +25.186    +15.682    +33.771    +17.143    +17.934    -31.277     -6.363    +41.526    -40.160    -24.369    +10.802    -50.614    +40.818    -35.249    +20.008    -48.977     -5.719    -43.984    +52.640     -2.945    +55.734     +7.804    -59.587    +24.169    -47.335 |
|    +10.272     -6.282    -18.973    -22.566    -13.610    +10.056    -18.329    -18.804    +13.343     -3.623    +24.256    -34.952     -0.072    -25.961    +12.233    -24.676    -14.041    -24.653    -12.375     +5.063    -25.290    -16.044     +9.307     +0.326    +20.602    +23.552    +12.400    +24.791    -16.727    +11.906    +30.017     +7.898    +38.443    -29.548    -20.075     +4.875    -26.793     -8.618    +33.052    -19.470    +24.590     -7.457    -26.757     -8.328    -24.210    +27.903    +17.413    +29.533    +14.686    +20.452    -31.160     -4.298    +36.828    -34.080    -33.733     -2.535    -52.684    +44.821    -30.882    +17.006    -49.299    -11.571    -44.146    +54.021     -2.126    +54.815     +6.449    -57.180    +28.211    -46.784 |
|    +13.957     -7.207    -23.814    -21.382    -20.023     +6.637    -24.841     -9.787    +11.972     -2.483    +24.184    -28.591     +2.488    -26.108     +5.893    -28.724    -17.608    -28.312     -4.841    +10.099    -23.498    -12.484     +8.465     +6.775    +14.030    +22.726     +6.326    +26.052    -19.953    +14.677    +31.088     +3.008    +35.592    -27.396    -18.528     +1.091    -29.406     -6.753    +34.490    -16.688    +24.260     -5.077    -29.830     -7.951    -26.651    +24.391    +12.416    +29.311     +8.726    +23.777    -29.460     -4.371    +39.062    -28.290    -28.360     -4.054    -43.451    +44.080    -35.946     +7.444    -49.256     -6.298    -53.107    +57.391     -0.331    +59.957     +6.570    -55.609    +27.146    -49.604 |
|    +18.753     -8.902    -24.084    -23.304    -17.290     +2.891    -35.171    -12.353    +14.134     +3.716    +22.428    -27.798     -0.491    -30.795    +14.340    -27.399    -17.358    -32.959     -3.619     +9.831    -18.185    -13.306    +11.347     +7.820    +14.971    +16.088     +7.380    +18.984    -16.706    +13.233    +29.214     +5.883    +31.450    -29.218    -13.208     -0.251    -36.174     -3.614    +32.587    -19.690    +21.850     -6.523    -27.950    -10.734    -31.319    +27.794     +9.110    +27.415    +12.535    +20.389    -23.522    -12.324    +43.416    -30.528    -23.329     -2.221    -44.488    +43.870    -24.846     -0.779    -52.990    -11.151    -57.846    +51.742     -2.217    +57.310    +10.653    -57.885    +21.824    -48.738 |
